<?xml version="1.0" standalone="no"?>
<!DOCTYPE svg PUBLIC "-//W3C//DTD SVG 20010904//EN"
 "http://www.w3.org/TR/2001/REC-SVG-20010904/DTD/svg10.dtd">
<svg version="1.0" xmlns="http://www.w3.org/2000/svg"
 width="800.000000pt" height="474.000000pt" viewBox="0 0 800.000000 474.000000"
 preserveAspectRatio="xMidYMid meet">
<metadata>
Created by potrace 1.16, written by Peter Selinger 2001-2019
</metadata>
<g transform="translate(0.000000,474.000000) scale(0.100000,-0.100000)"
fill="#000000" stroke="none">
<path d="M0 2370 l0 -2370 4000 0 4000 0 0 2370 0 2370 -4000 0 -4000 0 0
-2370z m7850 10 l0 -970 -3795 0 -3795 0 0 970 0 970 3795 0 3795 0 0 -970z"/>
<path d="M300 2380 l0 -930 3755 0 3755 0 0 930 0 930 -3755 0 -3755 0 0 -930z
m5950 654 c68 -15 188 -71 228 -104 23 -19 23 -20 5 -44 -10 -14 -22 -26 -26
-26 -5 0 -34 16 -65 35 -91 55 -164 77 -282 82 -124 6 -197 -9 -308 -63 -137
-67 -241 -188 -296 -344 -26 -74 -30 -99 -30 -195 0 -78 5 -128 18 -170 65
-217 230 -377 446 -431 139 -35 338 -4 450 70 l40 26 0 130 0 130 -210 0 -210
0 0 35 0 35 245 0 245 0 0 -188 0 -187 -51 -34 c-118 -77 -234 -106 -401 -99
-89 4 -131 11 -198 34 -196 66 -345 215 -417 416 -34 97 -43 287 -19 393 57
243 242 431 486 494 94 25 258 27 350 5z m1410 -44 l0 -40 -375 0 -375 0 0
-170 0 -170 245 0 245 0 0 -35 0 -35 -280 0 -280 0 0 238 c0 131 3 242 7 245
3 4 188 7 410 7 l403 0 0 -40z m-4555 -174 l250 -204 45 37 c82 68 435 354
448 364 9 7 20 3 37 -13 14 -13 24 -27 23 -31 -2 -4 -127 -109 -277 -233 -167
-136 -279 -222 -285 -217 -19 15 -531 434 -540 442 -9 8 29 59 44 59 3 0 118
-92 255 -204z m1761 -136 l132 -335 -276 -3 c-151 -1 -277 0 -280 2 -2 3 56
156 129 341 101 255 136 335 148 333 10 -2 61 -118 147 -338z m-3120 249 c110
-15 245 -52 341 -92 351 -148 489 -440 322 -683 -56 -81 -157 -163 -274 -220
-540 -263 -1364 -118 -1557 274 -31 62 -33 74 -33 167 1 90 4 106 30 159 95
194 364 348 690 395 88 13 391 13 481 0z m4754 -354 l0 -35 -245 0 -245 0 0
35 0 35 245 0 245 0 0 -35z m-3485 -206 c138 -112 270 -221 295 -241 l45 -37
305 250 305 249 3 -428 c1 -235 0 -433 -3 -439 -2 -7 -18 -13 -35 -13 l-30 0
-2 361 -3 361 -260 -212 c-143 -117 -265 -217 -271 -221 -6 -5 -116 78 -280
212 l-269 221 -3 -362 -2 -361 -33 3 -32 3 -3 439 c-2 352 0 437 10 429 7 -6
126 -102 263 -214z m4385 -204 l0 -35 -245 0 -245 0 0 -170 0 -170 375 0 375
0 0 -35 0 -35 -410 0 -410 0 0 240 0 240 280 0 280 0 0 -35z m-2209 -299 c27
-66 45 -124 41 -128 -5 -5 -22 -10 -37 -11 -27 -2 -30 3 -69 96 l-40 97 -370
-2 -370 -3 -39 -98 c-38 -95 -41 -98 -66 -92 -14 4 -30 10 -35 15 -5 5 12 59
40 130 l49 120 423 -2 423 -3 50 -119z"/>
<path d="M4631 2634 c-46 -119 -81 -218 -78 -220 2 -2 78 -3 169 -2 l166 3
-82 212 c-44 116 -84 214 -87 217 -3 3 -42 -91 -88 -210z"/>
<path d="M1410 2884 c-366 -32 -635 -165 -732 -362 -30 -60 -33 -76 -33 -152
0 -73 4 -93 29 -144 35 -71 128 -167 210 -215 78 -47 221 -99 336 -124 132
-28 412 -30 555 -3 279 52 485 177 568 345 28 58 32 75 31 146 -1 112 -31 175
-127 269 -114 112 -279 186 -487 220 -102 16 -276 26 -350 20z m206 -251 c102
-35 184 -151 184 -263 0 -112 -82 -228 -184 -263 -114 -39 -231 -14 -312 67
-113 114 -113 278 1 392 30 30 68 57 95 67 60 21 155 21 216 0z"/>
<path d="M1417 2606 c-139 -50 -203 -218 -134 -353 44 -86 123 -132 227 -132
149 0 254 102 254 249 0 147 -105 249 -254 249 -30 0 -72 -6 -93 -13z"/>
</g>
</svg>
